…
cites_shipments() %>%
  group_by(year) %>%
  summarize(number = n()) %>%
  arrange(desc(year)) %>% 
  collect()
#> # A tibble: 42 x 2
#>     year number
#>    <int>  <dbl>
#>  1  2016    687
#>  2  2015 349952
#>  3  2014 301666
#>  4  2013 121023
#>  5  2012 251963
#>  6  2011 276767
#>  7  2010 266920
#>  8  2009  27563
#>  9  2007 264187
#> 10  2006 258962
#> # … with 32 more rows
…
