Exploring CITES Trade Data with citesdb • citesdb
…
cites_shipments() %>%
  group_by(Year) %>%
  summarize(number = n()) %>%
  arrange(desc(Year)) %>%
  collect()
#> # A tibble: 44 x 2
#>     Year  number
#>    <int>   <dbl>
#>  1  2018    1326
#>  2  2017 1015719
#>  3  2016 1262632
#>  4  2015 1296532
#>  5  2014 1109872
#>  6  2013 1127363
#>  7  2012 1096645
#>  8  2011  950144
#>  9  2010  894011
#> 10  2009  908669
#> # … with 34 more rows
…
